{
  "type": "service_account",
  "project_id": "kebo-93097",
  "private_key_id": "f32af7dd46205d89b4e8770cfb81688ced3c3f89",
  "private_key": "-----BEGIN PRIVATE KEY-----\nMIIEvQIBADANBgkqhkiG9w0BAQEFAASCBKcwggSjAgEAAoIBAQC7tyshoQaiqrgw\nB0c8LyV7ICwPqAVeVntwsuJK5Fm4alaFjTVYlJnKKV0U8XGIPrS0owBwMXM2L3y4\ndY4jh7VbImYsTUQLYupoPOGFr8Puly+RWEbBX0DVlaSIgl9OVANh+8jzj5+8LISa\nxt9pqCAIyXpzxiLrRsXHICdqYegjcEBjoEcVFNkIA99xcxIJvWCcnkaMm1zdoldf\nEi1nqUBCbJRATf9JEnZGpY9OwjLpAzihEbEeP4iKNiJ4uCxtx2dewZa1bfIgPBYQ\nx+0PrbxcUeNc9Xz8M1xvdGPzVy5Le+9iZLwrZ/vd5qakV3v6P+HjwNw0iGZDIZEm\nYXkUjcE9AgMBAAECggEAKIhBiO5jJ2ajhMNdj1JCzpZAzVSjbB5SYyBNGoy6Dsbv\nTcES3sCfgHZ0AdysfhXEISj9JDyZOv7/+Dhx65wW/cmstC4u3iKKqN1UePBd5zu/\n6qtcA88UicnZEBzOhXRAkryyRF0jyZb3PxBoF0FVQXB3v13uFk1e0UNRH3hqjpQE\nqGO+FYh0DxqOI5+EJd869xN71/Qa8opR1eXiY+E0KANWbY+giAIOOFjXJOgDM0Fe\ny4oSs10/iLWRfGSjOLl96oaVpMPxWVj/tOHXAjlBMMYMpKp7COd/tAQNAhRe/6AH\nFdyRNc89Fkvh5SyK70V1VfmylDcVLgOeuH5PPg9+wQKBgQDjOmDD/96yJhHDujYL\n+ZyhoHFGNfQZ8cR3w+li65DHsq7h6FuM96eFiPy11Z5ub35YSxgHRSLKX0JguVVn\nAG/LvveBtW1V8xToFAdFAokgPMksO9/eqqbliDES3/PvpfhF3lFTRBaTJZswokon\nNH1O1awVf7k4Y1DjbJjN1a/hDQKBgQDTe/y7KKGQKOduMAR1Yq/BUC4tvOugp7bv\nijtK3CC4N+b4rn3QmD/4ml0dBy8poeevrHyikVkKZv41rD5l4lbaxzMhjG3WyN7e\n3HgUNr8h2Szl5gjVc6PKU/AG9MokgXWTKG9mLuT1M6ezkbzcuge96/90mDt2XI2t\nBKRm7cV08QKBgEPz/mI/D8s5BVECTA1yvXu8boOvuOtVWQr0BMS3a9m8vv4CLfbP\nTULq/6AlXTbrkt42vt3VuBzLNh+U7UxbXhORbZVVu3fbtSHec3oY0wdYBlV7Jm0B\nnd3Ax+Q8I0hE2yWR4cJD93hT48A8mG53DQ5ZahgX1T1evh71KBFOWUW1AoGBAIuu\netDLF1r2CVWX1XoKwnb2FGoVO7QS0hsIu/zHw7yo/58E8QiTZr02h4Witx3SWAqJ\n7JAbXCoouIKOz2/PvPonU7g23l1csweTqqP/POKIZMU72F3TUT1Tj1eo2tKdxyB5\nNorRMlxZz8wk2A8Zt/9THpjN64hTvSenx0ZMiXyhAoGAT3EDYxuyZToRmT4dWGh0\nNJRoTv37LZcf/vKlKnLvaLk9D4veO/4TXZDxgWqP6CSs3GEA8dbyV7Y8jMALKd0C\ngc+edDv7WfkRNZXQ4Br/ITpehvoDxjel5hyBPe8273vcpas7AzAaLT9RME7jjpEs\nP6ldc9MRwDSNWzJCgkyXEEg=\n-----END PRIVATE KEY-----\n",
  "client_email": "firebase-adminsdk-ywagq@kebo-93097.iam.gserviceaccount.com",
  "client_id": "118115827736280202094",
  "auth_uri": "https://accounts.google.com/o/oauth2/auth",
  "token_uri": "https://accounts.google.com/o/oauth2/token",
  "auth_provider_x509_cert_url": "https://www.googleapis.com/oauth2/v1/certs",
  "client_x509_cert_url": "https://www.googleapis.com/robot/v1/metadata/x509/firebase-adminsdk-ywagq%40kebo-93097.iam.gserviceaccount.com"
}
